10-30-2020 17:50:07 T#2[0x00009d6c] INFO  - Beginning application initialization
10-30-2020 17:50:09 T#2[0x00009d6c] INFO  - Vision Engine version: 7020102 starting
10-30-2020 17:50:11 T#2[0x00009d6c] INFO  - Load starts
10-30-2020 17:50:11 T#2[0x00009d6c] INFO  - [[None]] FTP image buffer is default: "C:\ProgramData\Teledyne DALSA\Sherlock\images"
10-30-2020 17:50:11 T#2[0x00009d6c] INFO  - Load finished
10-30-2020 17:50:11 T#2[0x00009d6c] INFO  - Application initialization succeeded
10-30-2020 17:50:13 T#2[0x00009d6c] INFO  - Vision Engine terminating
10-30-2020 17:50:13 T#2[0x00009d6c] INFO  - Beginning application shutdown
10-30-2020 17:50:13 T#2[0x00009d6c] INFO  - Application shutdown succeeded
