10-29-2020 17:31:41 T#2[0x00004668] INFO  - Beginning application initialization
10-29-2020 17:31:43 T#2[0x00004668] INFO  - Vision Engine version: 7020102 starting
10-29-2020 17:31:45 T#2[0x00004668] INFO  - Load starts
10-29-2020 17:31:45 T#2[0x00004668] INFO  - [[None]] FTP image buffer is default: "C:\ProgramData\Teledyne DALSA\Sherlock\images"
10-29-2020 17:31:46 T#2[0x00004668] INFO  - [[None]] FTP image buffer is default: "C:\ProgramData\Teledyne DALSA\Sherlock\images"
10-29-2020 17:31:46 T#2[0x00004668] INFO  - Load finished
10-29-2020 17:31:46 T#2[0x00004668] INFO  - Application initialization succeeded
10-29-2020 17:42:04 T#2[0x00004668] INFO  - Saving starts
10-29-2020 17:42:05 T#2[0x00004668] INFO  - Saving finished
10-29-2020 17:42:38 T#2[0x00004668] INFO  - Saving starts
10-29-2020 17:42:39 T#2[0x00004668] INFO  - Saving finished
10-29-2020 17:42:39 T#2[0x00004668] INFO  - Vision Engine terminating
10-29-2020 17:42:39 T#2[0x00004668] INFO  - Beginning application shutdown
10-29-2020 17:42:39 T#2[0x00004668] INFO  - Application shutdown succeeded
11-10-2020 14:31:05 T#2[0x000001b0] INFO  - Beginning application initialization
11-10-2020 14:31:07 T#2[0x000001b0] INFO  - Vision Engine version: 7020102 starting
11-10-2020 14:31:10 T#2[0x000001b0] INFO  - Load starts
11-10-2020 14:31:10 T#2[0x000001b0] INFO  - [[None]] FTP image buffer is default: "C:\ProgramData\Teledyne DALSA\Sherlock\images"
11-10-2020 14:31:10 T#2[0x000001b0] INFO  - [[None]] FTP image buffer is default: "C:\ProgramData\Teledyne DALSA\Sherlock\images"
11-10-2020 14:31:10 T#2[0x000001b0] INFO  - Load finished
11-10-2020 14:31:10 T#2[0x000001b0] INFO  - Application initialization succeeded
11-10-2020 14:32:20 T#2[0x000025e0] INFO  - Beginning application initialization
11-10-2020 14:32:22 T#2[0x000025e0] INFO  - Vision Engine version: 7020102 starting
11-10-2020 14:32:25 T#2[0x000025e0] INFO  - Load starts
11-10-2020 14:32:25 T#2[0x000025e0] INFO  - [[None]] FTP image buffer is default: "C:\ProgramData\Teledyne DALSA\Sherlock\images"
11-10-2020 14:32:25 T#2[0x000025e0] INFO  - [[None]] FTP image buffer is default: "C:\ProgramData\Teledyne DALSA\Sherlock\images"
11-10-2020 14:32:25 T#2[0x000025e0] INFO  - Load finished
11-10-2020 14:32:25 T#2[0x000025e0] INFO  - Application initialization succeeded
11-10-2020 14:32:33 T#2[0x000001b0] INFO  - Vision Engine terminating
11-10-2020 14:32:33 T#2[0x000001b0] INFO  - Beginning application shutdown
11-10-2020 14:32:33 T#2[0x000001b0] INFO  - Application shutdown succeeded
11-10-2020 14:51:07 T#2[0x00004c04] INFO  - Beginning application initialization
11-10-2020 14:51:09 T#2[0x00004c04] INFO  - Vision Engine version: 7020102 starting
11-10-2020 14:51:11 T#2[0x00004c04] INFO  - Load starts
11-10-2020 14:51:11 T#2[0x00004c04] INFO  - [[None]] FTP image buffer is default: "C:\ProgramData\Teledyne DALSA\Sherlock\images"
11-10-2020 14:51:11 T#2[0x00004c04] INFO  - [[None]] FTP image buffer is default: "C:\ProgramData\Teledyne DALSA\Sherlock\images"
11-10-2020 14:51:11 T#2[0x00004c04] INFO  - Load finished
11-10-2020 14:51:11 T#2[0x00004c04] INFO  - Application initialization succeeded
11-10-2020 14:52:19 T#2[0x00004c04] INFO  - Vision Engine terminating
11-10-2020 14:52:20 T#2[0x00004c04] INFO  - Beginning application shutdown
11-10-2020 14:52:20 T#2[0x00004c04] INFO  - Application shutdown succeeded
11-10-2020 14:52:25 T#2[0x000025e0] INFO  - Autosaving starts
11-10-2020 14:52:25 T#2[0x000025e0] INFO  - Autosaving finished
11-10-2020 14:54:13 T#2[0x000025e0] INFO  - Vision Engine terminating
11-10-2020 14:54:13 T#2[0x000025e0] INFO  - Beginning application shutdown
11-10-2020 14:54:13 T#2[0x000025e0] INFO  - Application shutdown succeeded
