11-09-2020 22:37:38 T#2[0x00003c4c] INFO  - Beginning application initialization
11-09-2020 22:37:40 T#2[0x00003c4c] INFO  - Vision Engine version: 7020102 starting
11-09-2020 22:37:42 T#2[0x00003c4c] INFO  - Load starts
11-09-2020 22:37:42 T#2[0x00003c4c] INFO  - [[None]] FTP image buffer is default: "C:\ProgramData\Teledyne DALSA\Sherlock\images"
11-09-2020 22:37:42 T#2[0x00003c4c] INFO  - [[None]] FTP image buffer is default: "C:\ProgramData\Teledyne DALSA\Sherlock\images"
11-09-2020 22:37:42 T#2[0x00003c4c] INFO  - Load finished
11-09-2020 22:37:42 T#2[0x00003c4c] INFO  - Application initialization succeeded
11-09-2020 22:37:45 T#6[0x00004bac] ERROR - Monitor: Executor - ROI Outside detected in ROI - Main : ROI
11-09-2020 22:38:08 T#2[0x00003c4c] INFO  - Load starts
11-09-2020 22:38:08 T#2[0x00003c4c] INFO  - [[None]] FTP image buffer is default: "C:\ProgramData\Teledyne DALSA\Sherlock\images"
11-09-2020 22:38:08 T#2[0x00003c4c] INFO  - [[None]] FTP image buffer is default: "C:\ProgramData\Teledyne DALSA\Sherlock\images"
11-09-2020 22:38:08 T#2[0x00003c4c] INFO  - Load finished
11-09-2020 22:39:02 T#2[0x00003c4c] INFO  - Saving starts
11-09-2020 22:39:03 T#2[0x00003c4c] INFO  - Vision Engine version: 7020102 starting
11-09-2020 22:39:03 T#2[0x00003c4c] INFO  - Saving finished
11-09-2020 22:52:13 T#2[0x00003c4c] INFO  - Saving starts
11-09-2020 22:52:14 T#2[0x00003c4c] INFO  - Saving finished
11-10-2020 10:46:42 T#2[0x00003c4c] INFO  - Autosaving starts
11-10-2020 10:46:43 T#2[0x00003c4c] INFO  - Autosaving finished
11-10-2020 11:01:34 T#2[0x00003c4c] INFO  - Autosaving starts
11-10-2020 11:01:35 T#2[0x00003c4c] INFO  - Autosaving finished
11-10-2020 11:21:38 T#2[0x00003c4c] INFO  - Autosaving starts
11-10-2020 11:21:39 T#2[0x00003c4c] INFO  - Autosaving finished
11-10-2020 11:22:48 T#2[0x00003c4c] INFO  - [imgA] FTP image buffer is default: "C:\ProgramData\Teledyne DALSA\Sherlock\images"
11-10-2020 11:29:58 T#2[0x00003c4c] INFO  - [imgA] FTP image buffer is default: "C:\ProgramData\Teledyne DALSA\Sherlock\images"
11-10-2020 11:41:34 T#2[0x00003c4c] INFO  - Autosaving starts
11-10-2020 11:41:35 T#2[0x00003c4c] INFO  - Autosaving finished
11-10-2020 13:41:34 T#2[0x00003c4c] INFO  - Autosaving starts
11-10-2020 13:41:35 T#2[0x00003c4c] INFO  - Autosaving finished
11-10-2020 13:41:42 T#6[0x00004bac] ERROR - Monitor: Executor - ROI Outside detected in RectA - Main : RectA
11-10-2020 13:41:43 T#6[0x00004bac] ERROR - Monitor: Executor - ROI Outside detected in RectA - Main : RectA
11-10-2020 13:41:44 T#6[0x00004bac] ERROR - Monitor: Executor - ROI Outside detected in RectA - Main : RectA
11-10-2020 13:41:45 T#6[0x00004bac] ERROR - Monitor: Executor - ROI Outside detected in RectA - Main : RectA
11-10-2020 13:41:46 T#6[0x00004bac] ERROR - Monitor: Executor - ROI Outside detected in RectA - Main : RectA
11-10-2020 13:41:47 T#6[0x00004bac] ERROR - Monitor: Executor - ROI Outside detected in RectA - Main : RectA
11-10-2020 13:41:48 T#6[0x00004bac] ERROR - Monitor: Executor - ROI Outside detected in RectA - Main : RectA
11-10-2020 13:41:49 T#6[0x00004bac] ERROR - Monitor: Executor - ROI Outside detected in RectA - Main : RectA
11-10-2020 13:41:50 T#6[0x00004bac] ERROR - Monitor: Executor - ROI Outside detected in RectA - Main : RectA
11-10-2020 13:41:51 T#6[0x00004bac] ERROR - Monitor: Executor - ROI Outside detected in RectA - Main : RectA
11-10-2020 13:42:48 T#6[0x00004bac] ERROR - Monitor: Executor - ROI Outside detected in RectA - Main : RectA
11-10-2020 13:42:49 T#6[0x00004bac] ERROR - Monitor: Executor - ROI Outside detected in RectA - Main : RectA
11-10-2020 13:42:49 T#6[0x00004bac] ERROR - Monitor: Executor - ROI Outside detected in RectA - Main : RectA
11-10-2020 13:42:50 T#6[0x00004bac] ERROR - Monitor: Executor - ROI Outside detected in RectA - Main : RectA
11-10-2020 13:42:50 T#6[0x00004bac] ERROR - Monitor: Executor - ROI Outside detected in RectA - Main : RectA
11-10-2020 13:42:51 T#6[0x00004bac] ERROR - Monitor: Executor - ROI Outside detected in RectA - Main : RectA
11-10-2020 13:42:51 T#6[0x00004bac] ERROR - Monitor: Executor - ROI Outside detected in RectA - Main : RectA
11-10-2020 13:42:52 T#6[0x00004bac] ERROR - Monitor: Executor - ROI Outside detected in RectA - Main : RectA
11-10-2020 13:42:52 T#6[0x00004bac] ERROR - Monitor: Executor - ROI Outside detected in RectA - Main : RectA
11-10-2020 13:42:53 T#6[0x00004bac] ERROR - Monitor: Executor - ROI Outside detected in RectA - Main : RectA
11-10-2020 13:42:55 T#6[0x00004bac] ERROR - Monitor: Executor - ROI Outside detected in RectA - Main : RectA
11-10-2020 13:42:55 T#6[0x00004bac] ERROR - Monitor: Executor - ROI Outside detected in RectA - Main : RectA
11-10-2020 13:42:56 T#6[0x00004bac] ERROR - Monitor: Executor - ROI Outside detected in RectA - Main : RectA
11-10-2020 13:42:57 T#6[0x00004bac] ERROR - Monitor: Executor - ROI Outside detected in RectA - Main : RectA
11-10-2020 13:42:57 T#6[0x00004bac] ERROR - Monitor: Executor - ROI Outside detected in RectA - Main : RectA
11-10-2020 13:42:58 T#6[0x00004bac] ERROR - Monitor: Executor - ROI Outside detected in RectA - Main : RectA
11-10-2020 13:43:01 T#6[0x00004bac] ERROR - Monitor: Executor - ROI Outside detected in RectA - Main : RectA
11-10-2020 13:43:02 T#6[0x00004bac] ERROR - Monitor: Executor - ROI Outside detected in RectA - Main : RectA
11-10-2020 13:43:04 T#6[0x00004bac] ERROR - Monitor: Executor - ROI Outside detected in RectA - Main : RectA
11-10-2020 13:43:05 T#6[0x00004bac] ERROR - Monitor: Executor - ROI Outside detected in RectA - Main : RectA
11-10-2020 13:43:10 T#6[0x00004bac] ERROR - Monitor: Executor - ROI Outside detected in RectA - Main : RectA
11-10-2020 13:43:11 T#6[0x00004bac] ERROR - Monitor: Executor - ROI Outside detected in RectA - Main : RectA
11-10-2020 13:43:11 T#6[0x00004bac] ERROR - Monitor: Executor - ROI Outside detected in RectA - Main : RectA
11-10-2020 13:43:12 T#6[0x00004bac] ERROR - Monitor: Executor - ROI Outside detected in RectA - Main : RectA
11-10-2020 13:43:25 T#6[0x00004bac] ERROR - Monitor: Executor - ROI Outside detected in RectA - Main : RectA
11-10-2020 13:43:28 T#6[0x00004bac] ERROR - Monitor: Executor - ROI Outside detected in RectA - Main : RectA
11-10-2020 13:43:29 T#6[0x00004bac] ERROR - Monitor: Executor - ROI Outside detected in RectA - Main : RectA
11-10-2020 13:43:32 T#6[0x00004bac] ERROR - Monitor: Executor - ROI Outside detected in RectA - Main : RectA
11-10-2020 14:45:51 T#2[0x000020cc] INFO  - Beginning application initialization
11-10-2020 14:45:53 T#2[0x000020cc] INFO  - Vision Engine version: 7020102 starting
11-10-2020 14:45:57 T#2[0x000020cc] INFO  - Load starts
11-10-2020 14:45:57 T#2[0x000020cc] INFO  - [[None]] FTP image buffer is default: "C:\ProgramData\Teledyne DALSA\Sherlock\images"
11-10-2020 14:45:57 T#2[0x000020cc] INFO  - [[None]] FTP image buffer is default: "C:\ProgramData\Teledyne DALSA\Sherlock\images"
11-10-2020 14:45:57 T#2[0x000020cc] INFO  - Load finished
11-10-2020 14:45:57 T#2[0x000020cc] INFO  - Application initialization succeeded
11-10-2020 14:50:09 T#2[0x000020cc] INFO  - Saving starts
11-10-2020 14:50:10 T#2[0x000020cc] INFO  - Vision Engine version: 7020102 starting
11-10-2020 14:50:10 T#2[0x000020cc] INFO  - Saving finished
11-10-2020 14:50:10 T#2[0x000020cc] INFO  - Vision Engine terminating
11-10-2020 14:50:10 T#2[0x000020cc] INFO  - Vision Engine terminating
11-10-2020 14:50:11 T#2[0x000020cc] INFO  - Beginning application shutdown
11-10-2020 14:50:11 T#2[0x000020cc] INFO  - Application shutdown succeeded
11-10-2020 14:55:05 T#2[0x00002320] INFO  - Beginning application initialization
11-10-2020 14:55:08 T#2[0x00002320] INFO  - Vision Engine version: 7020102 starting
11-10-2020 14:55:10 T#2[0x00002320] INFO  - Load starts
11-10-2020 14:55:10 T#2[0x00002320] INFO  - [[None]] FTP image buffer is default: "C:\ProgramData\Teledyne DALSA\Sherlock\images"
11-10-2020 14:55:10 T#2[0x00002320] INFO  - [[None]] FTP image buffer is default: "C:\ProgramData\Teledyne DALSA\Sherlock\images"
11-10-2020 14:55:10 T#2[0x00002320] INFO  - Load finished
11-10-2020 14:55:10 T#2[0x00002320] INFO  - Application initialization succeeded
11-10-2020 16:15:55 T#2[0x00002320] INFO  - Autosaving starts
11-10-2020 16:15:55 T#2[0x00002320] INFO  - Vision Engine version: 7020102 starting
11-10-2020 16:15:55 T#2[0x00002320] INFO  - Autosaving finished
11-10-2020 16:37:46 T#2[0x00002320] INFO  - Autosaving starts
11-10-2020 16:37:46 T#2[0x00002320] INFO  - Autosaving finished
11-10-2020 16:38:00 T#2[0x00002320] INFO  - Saving starts
11-10-2020 16:38:00 T#2[0x00002320] INFO  - Saving finished
11-10-2020 16:38:00 T#2[0x00002320] INFO  - Vision Engine terminating
11-10-2020 16:38:00 T#2[0x00002320] INFO  - Vision Engine terminating
11-10-2020 16:38:00 T#2[0x00002320] INFO  - Beginning application shutdown
11-10-2020 16:38:00 T#2[0x00002320] INFO  - Application shutdown succeeded
11-10-2020 19:41:53 T#2[0x00005df8] INFO  - Beginning application initialization
11-10-2020 19:41:55 T#2[0x00005df8] INFO  - Vision Engine version: 7020102 starting
11-10-2020 19:41:58 T#2[0x00005df8] INFO  - Load starts
11-10-2020 19:41:58 T#2[0x00005df8] INFO  - [[None]] FTP image buffer is default: "C:\ProgramData\Teledyne DALSA\Sherlock\images"
11-10-2020 19:41:58 T#2[0x00005df8] INFO  - [[None]] FTP image buffer is default: "C:\ProgramData\Teledyne DALSA\Sherlock\images"
11-10-2020 19:41:58 T#2[0x00005df8] INFO  - Load finished
11-10-2020 19:41:58 T#2[0x00005df8] INFO  - Application initialization succeeded
11-10-2020 20:02:02 T#2[0x00005df8] INFO  - Autosaving starts
11-10-2020 20:02:02 T#2[0x00005df8] INFO  - Vision Engine version: 7020102 starting
11-10-2020 20:02:02 T#2[0x00005df8] INFO  - Autosaving finished
11-10-2020 20:04:16 T#2[0x00005df8] ERROR - Monitor: ROI.Threshold Band - Error in Threshold Band
11-10-2020 20:04:29 T#2[0x00005df8] ERROR - Monitor: ROI.Threshold Band - Error in Threshold Band
11-10-2020 20:04:33 T#2[0x00005df8] ERROR - Monitor: ROI.Threshold Band - Error in Threshold Band
11-10-2020 20:04:33 T#2[0x00005df8] ERROR - Monitor: ROI.Threshold Band - Error in Threshold Band
11-10-2020 20:04:36 T#2[0x00005df8] ERROR - Monitor: ROI.Threshold Band - Error in Threshold Band
11-10-2020 20:21:58 T#2[0x00005df8] INFO  - Autosaving starts
11-10-2020 20:21:58 T#2[0x00005df8] INFO  - Autosaving finished
11-10-2020 20:30:06 T#2[0x00005df8] INFO  - Saving starts
11-10-2020 20:30:06 T#2[0x00005df8] INFO  - Saving finished
11-10-2020 20:36:48 T#6[0x00003978] ERROR - Monitor: Script - Getvalue (line 17) : Error #133 in "Getvalue" at line #17. SyntaxError: syntax error - Main : Getvalue
11-10-2020 20:36:48 T#6[0x00003978] ERROR - Null script [Thrown from .\JavaScript\JsFront.cpp at line 452]
11-10-2020 20:36:48 T#6[0x00003978] ERROR - Monitor: Executor - Script error detected in Getvalue - Main : Getvalue
11-10-2020 20:36:48 T#6[0x00003978] ERROR - Monitor: Executor - Halting on error - Main : Getvalue
11-10-2020 20:41:59 T#2[0x00005df8] INFO  - Autosaving starts
11-10-2020 20:42:00 T#2[0x00005df8] INFO  - Autosaving finished
11-10-2020 21:03:15 T#2[0x00005df8] INFO  - Autosaving starts
11-10-2020 21:03:15 T#2[0x00005df8] INFO  - Autosaving finished
11-10-2020 21:03:17 T#6[0x00003978] ERROR - Monitor: Script - Getvalue (line 11) : Error #1 in "Getvalue" at line #11. ReferenceError: n is not defined - Main : Getvalue
11-10-2020 21:03:17 T#6[0x00003978] ERROR - Monitor: Executor - Script error detected in Getvalue - Main : Getvalue
11-10-2020 21:03:17 T#6[0x00003978] ERROR - Monitor: Executor - Halting on error - Main : Getvalue
11-10-2020 21:03:20 T#6[0x00003978] ERROR - Monitor: Script - Getvalue (line 11) : Error #1 in "Getvalue" at line #11. ReferenceError: n is not defined - Main : Getvalue
11-10-2020 21:03:20 T#6[0x00003978] ERROR - Monitor: Executor - Script error detected in Getvalue - Main : Getvalue
11-10-2020 21:03:20 T#6[0x00003978] ERROR - Monitor: Executor - Halting on error - Main : Getvalue
11-10-2020 21:03:21 T#6[0x00003978] ERROR - Monitor: Script - Getvalue (line 11) : Error #1 in "Getvalue" at line #11. ReferenceError: n is not defined - Main : Getvalue
11-10-2020 21:03:21 T#6[0x00003978] ERROR - Monitor: Executor - Script error detected in Getvalue - Main : Getvalue
11-10-2020 21:03:21 T#6[0x00003978] ERROR - Monitor: Executor - Halting on error - Main : Getvalue
11-10-2020 21:03:22 T#6[0x00003978] ERROR - Monitor: Script - Getvalue (line 11) : Error #1 in "Getvalue" at line #11. ReferenceError: n is not defined - Main : Getvalue
11-10-2020 21:03:22 T#6[0x00003978] ERROR - Monitor: Executor - Script error detected in Getvalue - Main : Getvalue
11-10-2020 21:03:22 T#6[0x00003978] ERROR - Monitor: Executor - Halting on error - Main : Getvalue
11-10-2020 21:03:51 T#6[0x00003978] ERROR - Monitor: Script - Getvalue (line 11) : Error #1 in "Getvalue" at line #11. ReferenceError: n is not defined - Main : Getvalue
11-10-2020 21:03:51 T#6[0x00003978] ERROR - Monitor: Executor - Script error detected in Getvalue - Main : Getvalue
11-10-2020 21:03:51 T#6[0x00003978] ERROR - Monitor: Executor - Halting on error - Main : Getvalue
11-10-2020 21:03:52 T#6[0x00003978] ERROR - Monitor: Script - Getvalue (line 11) : Error #1 in "Getvalue" at line #11. ReferenceError: n is not defined - Main : Getvalue
11-10-2020 21:03:52 T#6[0x00003978] ERROR - Monitor: Executor - Script error detected in Getvalue - Main : Getvalue
11-10-2020 21:03:52 T#6[0x00003978] ERROR - Monitor: Executor - Halting on error - Main : Getvalue
11-10-2020 21:03:53 T#6[0x00003978] ERROR - Monitor: Script - Getvalue (line 11) : Error #1 in "Getvalue" at line #11. ReferenceError: n is not defined - Main : Getvalue
11-10-2020 21:03:53 T#6[0x00003978] ERROR - Monitor: Executor - Script error detected in Getvalue - Main : Getvalue
11-10-2020 21:03:53 T#6[0x00003978] ERROR - Monitor: Executor - Halting on error - Main : Getvalue
11-10-2020 21:03:53 T#6[0x00003978] ERROR - Monitor: Script - Getvalue (line 11) : Error #1 in "Getvalue" at line #11. ReferenceError: n is not defined - Main : Getvalue
11-10-2020 21:03:53 T#6[0x00003978] ERROR - Monitor: Executor - Script error detected in Getvalue - Main : Getvalue
11-10-2020 21:03:53 T#6[0x00003978] ERROR - Monitor: Executor - Halting on error - Main : Getvalue
11-10-2020 21:05:40 T#2[0x00005df8] INFO  - Saving starts
11-10-2020 21:05:41 T#2[0x00005df8] INFO  - Saving finished
11-10-2020 21:15:59 T#6[0x00003978] ERROR - GetPoint() failed. [Thrown from .\JavaScript\Jsval.cpp at line 449] - in file: .\JavaScript\JsCwPointArray.cpp at line #98
11-10-2020 21:15:59 T#6[0x00003978] ERROR - Monitor: Script - Getvalue (line 24) : Error #206 in "Getvalue" at line #24. Error: Internal SetProperty failure - Main : Getvalue
11-10-2020 21:15:59 T#6[0x00003978] ERROR - Monitor: Executor - Script error detected in Getvalue - Main : Getvalue
11-10-2020 21:15:59 T#6[0x00003978] ERROR - Monitor: Executor - Halting on error - Main : Getvalue
11-10-2020 21:16:30 T#6[0x00003978] ERROR - GetPoint() failed. [Thrown from .\JavaScript\Jsval.cpp at line 449] - in file: .\JavaScript\JsCwPointArray.cpp at line #98
11-10-2020 21:16:30 T#6[0x00003978] ERROR - Monitor: Script - Getvalue (line 24) : Error #206 in "Getvalue" at line #24. Error: Internal SetProperty failure - Main : Getvalue
11-10-2020 21:16:30 T#6[0x00003978] ERROR - Monitor: Executor - Script error detected in Getvalue - Main : Getvalue
11-10-2020 21:16:30 T#6[0x00003978] ERROR - Monitor: Executor - Halting on error - Main : Getvalue
11-10-2020 21:17:52 T#6[0x00003978] ERROR - GetPoint() failed. [Thrown from .\JavaScript\Jsval.cpp at line 449] - in file: .\JavaScript\JsCwPointArray.cpp at line #98
11-10-2020 21:17:52 T#6[0x00003978] ERROR - Monitor: Script - Getvalue (line 24) : Error #206 in "Getvalue" at line #24. Error: Internal SetProperty failure - Main : Getvalue
11-10-2020 21:17:52 T#6[0x00003978] ERROR - Monitor: Executor - Script error detected in Getvalue - Main : Getvalue
11-10-2020 21:17:52 T#6[0x00003978] ERROR - Monitor: Executor - Halting on error - Main : Getvalue
11-10-2020 21:17:53 T#6[0x00003978] ERROR - GetPoint() failed. [Thrown from .\JavaScript\Jsval.cpp at line 449] - in file: .\JavaScript\JsCwPointArray.cpp at line #98
11-10-2020 21:17:53 T#6[0x00003978] ERROR - Monitor: Script - Getvalue (line 24) : Error #206 in "Getvalue" at line #24. Error: Internal SetProperty failure - Main : Getvalue
11-10-2020 21:17:53 T#6[0x00003978] ERROR - Monitor: Executor - Script error detected in Getvalue - Main : Getvalue
11-10-2020 21:17:53 T#6[0x00003978] ERROR - Monitor: Executor - Halting on error - Main : Getvalue
11-10-2020 21:17:54 T#6[0x00003978] ERROR - GetPoint() failed. [Thrown from .\JavaScript\Jsval.cpp at line 449] - in file: .\JavaScript\JsCwPointArray.cpp at line #98
11-10-2020 21:17:54 T#6[0x00003978] ERROR - Monitor: Script - Getvalue (line 24) : Error #206 in "Getvalue" at line #24. Error: Internal SetProperty failure - Main : Getvalue
11-10-2020 21:17:54 T#6[0x00003978] ERROR - Monitor: Executor - Script error detected in Getvalue - Main : Getvalue
11-10-2020 21:17:54 T#6[0x00003978] ERROR - Monitor: Executor - Halting on error - Main : Getvalue
11-10-2020 21:17:54 T#6[0x00003978] ERROR - GetPoint() failed. [Thrown from .\JavaScript\Jsval.cpp at line 449] - in file: .\JavaScript\JsCwPointArray.cpp at line #98
11-10-2020 21:17:54 T#6[0x00003978] ERROR - Monitor: Script - Getvalue (line 24) : Error #206 in "Getvalue" at line #24. Error: Internal SetProperty failure - Main : Getvalue
11-10-2020 21:17:54 T#6[0x00003978] ERROR - Monitor: Executor - Script error detected in Getvalue - Main : Getvalue
11-10-2020 21:17:54 T#6[0x00003978] ERROR - Monitor: Executor - Halting on error - Main : Getvalue
11-10-2020 21:17:54 T#6[0x00003978] ERROR - GetPoint() failed. [Thrown from .\JavaScript\Jsval.cpp at line 449] - in file: .\JavaScript\JsCwPointArray.cpp at line #98
11-10-2020 21:17:54 T#6[0x00003978] ERROR - Monitor: Script - Getvalue (line 24) : Error #206 in "Getvalue" at line #24. Error: Internal SetProperty failure - Main : Getvalue
11-10-2020 21:17:54 T#6[0x00003978] ERROR - Monitor: Executor - Script error detected in Getvalue - Main : Getvalue
11-10-2020 21:17:54 T#6[0x00003978] ERROR - Monitor: Executor - Halting on error - Main : Getvalue
11-10-2020 21:22:55 T#2[0x00005df8] INFO  - Autosaving starts
11-10-2020 21:22:55 T#2[0x00005df8] INFO  - Autosaving finished
11-10-2020 21:24:06 T#2[0x00005df8] INFO  - Saving starts
11-10-2020 21:24:07 T#2[0x00005df8] INFO  - Saving finished
11-10-2020 21:24:08 T#2[0x00005df8] INFO  - Vision Engine terminating
11-10-2020 21:24:08 T#2[0x00005df8] INFO  - Vision Engine terminating
11-10-2020 21:24:09 T#2[0x00005df8] INFO  - Beginning application shutdown
11-10-2020 21:24:09 T#2[0x00005df8] INFO  - Application shutdown succeeded
11-28-2020 16:32:31 T#2[0x00003fbc] INFO  - Beginning application initialization
11-28-2020 16:32:34 T#2[0x00003fbc] INFO  - Vision Engine version: 7020102 starting
11-28-2020 16:32:39 T#2[0x00003fbc] INFO  - Load starts
11-28-2020 16:32:39 T#2[0x00003fbc] INFO  - [[None]] FTP image buffer is default: "C:\ProgramData\Teledyne DALSA\Sherlock\images"
11-28-2020 16:32:39 T#2[0x00003fbc] INFO  - [[None]] FTP image buffer is default: "C:\ProgramData\Teledyne DALSA\Sherlock\images"
11-28-2020 16:32:40 T#2[0x00003fbc] INFO  - Load finished
11-28-2020 16:32:40 T#2[0x00003fbc] INFO  - Application initialization succeeded
11-28-2020 16:52:39 T#2[0x00003fbc] INFO  - Autosaving starts
11-28-2020 16:52:39 T#2[0x00003fbc] INFO  - Vision Engine version: 7020102 starting
11-28-2020 16:52:39 T#2[0x00003fbc] INFO  - Autosaving finished
11-28-2020 16:53:14 T#6[0x000044b8] ERROR - Monitor: Executor - ROI Outside detected in ROI_A - Main : ROI_A
11-28-2020 16:53:16 T#6[0x000044b8] ERROR - Monitor: Executor - ROI Outside detected in ROI_A - Main : ROI_A
11-28-2020 16:53:17 T#6[0x000044b8] ERROR - Monitor: Executor - ROI Outside detected in ROI_A - Main : ROI_A
11-28-2020 16:53:18 T#6[0x000044b8] ERROR - Monitor: Executor - ROI Outside detected in ROI_A - Main : ROI_A
11-28-2020 16:53:19 T#6[0x000044b8] ERROR - Monitor: Executor - ROI Outside detected in ROI_A - Main : ROI_A
11-28-2020 16:53:20 T#6[0x000044b8] ERROR - Monitor: Executor - ROI Outside detected in ROI_A - Main : ROI_A
11-28-2020 16:53:21 T#6[0x000044b8] ERROR - Monitor: Executor - ROI Outside detected in ROI_A - Main : ROI_A
11-28-2020 16:53:22 T#6[0x000044b8] ERROR - Monitor: Executor - ROI Outside detected in ROI_A - Main : ROI_A
11-28-2020 16:53:22 T#6[0x000044b8] ERROR - Monitor: Executor - ROI Outside detected in ROI_A - Main : ROI_A
11-28-2020 16:53:24 T#6[0x000044b8] ERROR - Monitor: Executor - ROI Outside detected in ROI_A - Main : ROI_A
11-28-2020 17:03:36 T#6[0x000044b8] ERROR - Monitor: Executor - ROI Outside detected in ROI_A - Main : ROI_A
11-28-2020 17:03:39 T#6[0x000044b8] ERROR - Monitor: Executor - ROI Outside detected in ROI_A - Main : ROI_A
11-28-2020 17:04:00 T#6[0x000044b8] ERROR - Monitor: Executor - ROI Outside detected in ROI_A - Main : ROI_A
11-28-2020 17:04:00 T#6[0x000044b8] ERROR - Monitor: Executor - ROI Outside detected in ROI_A - Main : ROI_A
11-28-2020 17:04:01 T#6[0x000044b8] ERROR - Monitor: Executor - ROI Outside detected in ROI_A - Main : ROI_A
11-28-2020 17:07:58 T#2[0x00003fbc] ERROR - Monitor: ROI_A.Threshold Band - Error in Threshold Band
11-28-2020 17:08:33 T#2[0x00003fbc] ERROR - Monitor: ROI_A.Threshold Band - Error in Threshold Band
11-28-2020 17:12:39 T#2[0x00003fbc] INFO  - Autosaving starts
11-28-2020 17:12:39 T#2[0x00003fbc] INFO  - Autosaving finished
11-28-2020 17:15:38 T#6[0x000044b8] ERROR - Monitor: Script - GetBand (line 6) : Error #133 in "GetBand" at line #6. SyntaxError: syntax error - Main : GetBand
11-28-2020 17:15:38 T#6[0x000044b8] ERROR - Null script [Thrown from .\JavaScript\JsFront.cpp at line 452]
11-28-2020 17:15:38 T#6[0x000044b8] ERROR - Monitor: Executor - Script error detected in GetBand - Main : GetBand
11-28-2020 17:15:38 T#6[0x000044b8] ERROR - Monitor: Executor - Halting on error - Main : GetBand
11-28-2020 17:15:39 T#6[0x000044b8] ERROR - Monitor: Script - GetBand (line 6) : Error #133 in "GetBand" at line #6. SyntaxError: syntax error - Main : GetBand
11-28-2020 17:15:39 T#6[0x000044b8] ERROR - Null script [Thrown from .\JavaScript\JsFront.cpp at line 452]
11-28-2020 17:15:39 T#6[0x000044b8] ERROR - Monitor: Executor - Script error detected in GetBand - Main : GetBand
11-28-2020 17:15:39 T#6[0x000044b8] ERROR - Monitor: Executor - Halting on error - Main : GetBand
11-28-2020 17:15:41 T#6[0x000044b8] ERROR - Monitor: Script - GetBand (line 6) : Error #133 in "GetBand" at line #6. SyntaxError: syntax error - Main : GetBand
11-28-2020 17:15:41 T#6[0x000044b8] ERROR - Null script [Thrown from .\JavaScript\JsFront.cpp at line 452]
11-28-2020 17:15:41 T#6[0x000044b8] ERROR - Monitor: Executor - Script error detected in GetBand - Main : GetBand
11-28-2020 17:15:41 T#6[0x000044b8] ERROR - Monitor: Executor - Halting on error - Main : GetBand
11-28-2020 17:15:42 T#6[0x000044b8] ERROR - Monitor: Script - GetBand (line 6) : Error #133 in "GetBand" at line #6. SyntaxError: syntax error - Main : GetBand
11-28-2020 17:15:42 T#6[0x000044b8] ERROR - Null script [Thrown from .\JavaScript\JsFront.cpp at line 452]
11-28-2020 17:15:42 T#6[0x000044b8] ERROR - Monitor: Executor - Script error detected in GetBand - Main : GetBand
11-28-2020 17:15:42 T#6[0x000044b8] ERROR - Monitor: Executor - Halting on error - Main : GetBand
11-28-2020 17:15:42 T#6[0x000044b8] ERROR - Monitor: Script - GetBand (line 6) : Error #133 in "GetBand" at line #6. SyntaxError: syntax error - Main : GetBand
11-28-2020 17:15:42 T#6[0x000044b8] ERROR - Null script [Thrown from .\JavaScript\JsFront.cpp at line 452]
11-28-2020 17:15:42 T#6[0x000044b8] ERROR - Monitor: Executor - Script error detected in GetBand - Main : GetBand
11-28-2020 17:15:42 T#6[0x000044b8] ERROR - Monitor: Executor - Halting on error - Main : GetBand
11-28-2020 17:15:43 T#6[0x000044b8] ERROR - Monitor: Script - GetBand (line 6) : Error #133 in "GetBand" at line #6. SyntaxError: syntax error - Main : GetBand
11-28-2020 17:15:43 T#6[0x000044b8] ERROR - Null script [Thrown from .\JavaScript\JsFront.cpp at line 452]
11-28-2020 17:15:43 T#6[0x000044b8] ERROR - Monitor: Executor - Script error detected in GetBand - Main : GetBand
11-28-2020 17:15:43 T#6[0x000044b8] ERROR - Monitor: Executor - Halting on error - Main : GetBand
11-28-2020 17:15:43 T#6[0x000044b8] ERROR - Monitor: Script - GetBand (line 6) : Error #133 in "GetBand" at line #6. SyntaxError: syntax error - Main : GetBand
11-28-2020 17:15:43 T#6[0x000044b8] ERROR - Null script [Thrown from .\JavaScript\JsFront.cpp at line 452]
11-28-2020 17:15:43 T#6[0x000044b8] ERROR - Monitor: Executor - Script error detected in GetBand - Main : GetBand
11-28-2020 17:15:43 T#6[0x000044b8] ERROR - Monitor: Executor - Halting on error - Main : GetBand
11-28-2020 17:15:44 T#6[0x000044b8] ERROR - Monitor: Script - GetBand (line 6) : Error #133 in "GetBand" at line #6. SyntaxError: syntax error - Main : GetBand
11-28-2020 17:15:44 T#6[0x000044b8] ERROR - Null script [Thrown from .\JavaScript\JsFront.cpp at line 452]
11-28-2020 17:15:44 T#6[0x000044b8] ERROR - Monitor: Executor - Script error detected in GetBand - Main : GetBand
11-28-2020 17:15:44 T#6[0x000044b8] ERROR - Monitor: Executor - Halting on error - Main : GetBand
11-28-2020 17:15:44 T#6[0x000044b8] ERROR - Monitor: Script - GetBand (line 6) : Error #133 in "GetBand" at line #6. SyntaxError: syntax error - Main : GetBand
11-28-2020 17:15:44 T#6[0x000044b8] ERROR - Null script [Thrown from .\JavaScript\JsFront.cpp at line 452]
11-28-2020 17:15:44 T#6[0x000044b8] ERROR - Monitor: Executor - Script error detected in GetBand - Main : GetBand
11-28-2020 17:15:44 T#6[0x000044b8] ERROR - Monitor: Executor - Halting on error - Main : GetBand
11-28-2020 17:15:45 T#6[0x000044b8] ERROR - Monitor: Script - GetBand (line 6) : Error #133 in "GetBand" at line #6. SyntaxError: syntax error - Main : GetBand
11-28-2020 17:15:45 T#6[0x000044b8] ERROR - Null script [Thrown from .\JavaScript\JsFront.cpp at line 452]
11-28-2020 17:15:45 T#6[0x000044b8] ERROR - Monitor: Executor - Script error detected in GetBand - Main : GetBand
11-28-2020 17:15:45 T#6[0x000044b8] ERROR - Monitor: Executor - Halting on error - Main : GetBand
11-28-2020 17:16:03 T#6[0x000044b8] ERROR - Monitor: Script - GetBand (line 6) : Error #133 in "GetBand" at line #6. SyntaxError: syntax error - Main : GetBand
11-28-2020 17:16:03 T#6[0x000044b8] ERROR - Null script [Thrown from .\JavaScript\JsFront.cpp at line 452]
11-28-2020 17:16:03 T#6[0x000044b8] ERROR - Monitor: Executor - Script error detected in GetBand - Main : GetBand
11-28-2020 17:16:03 T#6[0x000044b8] ERROR - Monitor: Executor - Halting on error - Main : GetBand
11-28-2020 17:17:57 T#6[0x000044b8] ERROR - Monitor: Executor - ROI Outside detected in ROI_A - Main : ROI_A
11-28-2020 17:18:00 T#6[0x000044b8] ERROR - Monitor: Executor - ROI Outside detected in ROI_A - Main : ROI_A
11-28-2020 17:25:01 T#2[0x00003fbc] INFO  - Saving starts
11-28-2020 17:25:02 T#2[0x00003fbc] INFO  - Saving finished
11-28-2020 17:31:02 T#2[0x00003fbc] INFO  - Saving starts
11-28-2020 17:31:03 T#2[0x00003fbc] INFO  - Saving finished
11-28-2020 17:52:39 T#2[0x00003fbc] INFO  - Autosaving starts
11-28-2020 17:52:39 T#2[0x00003fbc] INFO  - Autosaving finished
11-28-2020 17:54:49 T#2[0x00003fbc] INFO  - Saving starts
11-28-2020 17:54:50 T#2[0x00003fbc] INFO  - Saving finished
11-28-2020 18:35:08 T#2[0x00003fbc] INFO  - Vision Engine terminating
11-28-2020 18:35:08 T#2[0x00003fbc] INFO  - Vision Engine terminating
11-28-2020 18:35:08 T#2[0x00003fbc] INFO  - Beginning application shutdown
11-28-2020 18:35:09 T#2[0x00003fbc] INFO  - Application shutdown succeeded
11-28-2020 18:35:40 T#2[0x00004290] INFO  - Beginning application initialization
11-28-2020 18:35:42 T#2[0x00004290] INFO  - Vision Engine version: 7020102 starting
11-28-2020 18:35:44 T#2[0x00004290] INFO  - Load starts
11-28-2020 18:35:44 T#2[0x00004290] INFO  - [[None]] FTP image buffer is default: "C:\ProgramData\Teledyne DALSA\Sherlock\images"
11-28-2020 18:35:44 T#2[0x00004290] INFO  - [[None]] FTP image buffer is default: "C:\ProgramData\Teledyne DALSA\Sherlock\images"
11-28-2020 18:35:45 T#2[0x00004290] INFO  - Load finished
11-28-2020 18:35:45 T#2[0x00004290] INFO  - Application initialization succeeded
11-28-2020 18:36:31 T#2[0x00004290] INFO  - Vision Engine terminating
11-28-2020 18:36:31 T#2[0x00004290] INFO  - Beginning application shutdown
11-28-2020 18:36:31 T#2[0x00004290] INFO  - Application shutdown succeeded
